module gitlab.com/go-volary/volary-opera

go 1.14

require (
	github.com/Fantom-foundation/lachesis-base v0.0.0-20220103160934-6b4931c60582
	github.com/allegro/bigcache v1.2.1 // indirect
	github.com/certifi/gocertifi v0.0.0-20191021191039-0944d244cd40 // indirect
	github.com/cespare/cp v1.1.1
	github.com/codahale/hdrhistogram v0.0.0-20161010025455-3a0bb77429bd // indirect
	github.com/davecgh/go-spew v1.1.1
	github.com/deckarep/golang-set v1.7.1
	github.com/docker/docker v1.13.1
	github.com/dvyukov/go-fuzz v0.0.0-20201127111758-49e582c6c23d
	github.com/ethereum/go-ethereum v1.10.8
	github.com/evalphobia/logrus_sentry v0.8.2
	github.com/fjl/memsize v0.0.0-20190710130421-bcb5799ab5e5
	github.com/gballet/go-libpcsclite v0.0.0-20191108122812-4678299bea08 // indirect
	github.com/getsentry/raven-go v0.2.0 // indirect
	github.com/go-kit/kit v0.9.0 // indirect
	github.com/golang/mock v1.3.1
	github.com/hashicorp/golang-lru v0.5.5-0.20210104140557-80c98217689d
	github.com/holiman/bloomfilter/v2 v2.0.3
	github.com/julienschmidt/httprouter v1.3.0 // indirect
	github.com/karalabe/usb v0.0.0-20191104083709-911d15fe12a9 // indirect
	github.com/konsorten/go-windows-terminal-sequences v1.0.2 // indirect
	github.com/mattn/go-colorable v0.1.8
	github.com/mattn/go-isatty v0.0.12
	github.com/naoina/toml v0.1.2-0.20170918210437-9fafd6967416
	github.com/opentracing/opentracing-go v1.1.0
	github.com/pkg/errors v0.9.1
	github.com/prometheus/tsdb v0.10.0 // indirect
	github.com/rjeczalik/notify v0.9.2 // indirect
	github.com/sirupsen/logrus v1.4.2
	github.com/status-im/keycard-go v0.0.0-20190424133014-d95853db0f48
	github.com/stretchr/testify v1.7.0
	github.com/syndtr/goleveldb v1.0.1-0.20210305035536-64b5b1c73954
	github.com/tyler-smith/go-bip39 v1.0.2
	github.com/uber/jaeger-client-go v2.20.1+incompatible
	github.com/uber/jaeger-lib v2.2.0+incompatible
	go.uber.org/atomic v1.5.1 // indirect
	golang.org/x/crypto v0.0.0-20210322153248-0c34fe9e7dc2
	golang.org/x/tools v0.1.5 // indirect
	gopkg.in/urfave/cli.v1 v1.20.0
)

replace github.com/ethereum/go-ethereum => gitlab.com/go-volary/go-ethereum v0.0.0-20230309073950-475b08f1b1e2

replace github.com/dvyukov/go-fuzz => github.com/guzenok/go-fuzz v0.0.0-20210103140116-f9104dfb626f
